# Blender MTL File: 'Fence cross (2).blend'
# Material Count: 1

newmtl Material
Ns 96.078431
Ka 0.000000 0.000000 0.000000
Kd 0.640000 0.212805 0.069932
Ks 0.500000 0.500000 0.500000
Ni 1.000000
d 1.000000
illum 2
map_Kd H:\\Unity Projects\\Sheepbouncey\\Desktop\\Fence cross (2).png
